[gd_scene load_steps=9 format=2]

[ext_resource path="res://scenes/player/player_animation.gd" type="Script" id=1]
[ext_resource path="res://GFX/Players/bunny2_hurt.png" type="Texture" id=2]
[ext_resource path="res://GFX/Players/bunny2_ready.png" type="Texture" id=3]
[ext_resource path="res://GFX/Players/bunny2_stand.png" type="Texture" id=4]
[ext_resource path="res://GFX/Players/bunny2_jump.png" type="Texture" id=5]
[ext_resource path="res://GFX/Players/bunny2_walk1.png" type="Texture" id=6]
[ext_resource path="res://GFX/Players/bunny2_walk2.png" type="Texture" id=7]

[sub_resource type="SpriteFrames" id=1]
animations = [ {
"frames": [ ExtResource( 2 ) ],
"loop": true,
"name": "Hurt",
"speed": 5.0
}, {
"frames": [ ExtResource( 3 ), ExtResource( 4 ) ],
"loop": true,
"name": "Idle",
"speed": 5.0
}, {
"frames": [ ExtResource( 5 ) ],
"loop": true,
"name": "Jumping",
"speed": 10.0
}, {
"frames": [ ExtResource( 6 ), ExtResource( 7 ) ],
"loop": true,
"name": "Walking",
"speed": 10.0
} ]

[node name="PlayerAnimation" type="AnimatedSprite"]
frames = SubResource( 1 )
animation = "Walking"
script = ExtResource( 1 )
