[gd_scene load_steps=2 format=2]

[ext_resource path="res://Scenes/Levels/game_over.tscn" type="PackedScene" id=1]

[node name="Victory" instance=ExtResource( 1 )]
margin_left = 5.65625
margin_top = -5.65674
margin_right = 5.65625
margin_bottom = -5.65674

[node name="VBoxContainer" parent="CenterContainer" index="0"]
margin_left = 6.0
margin_right = 1017.0

[node name="Label" parent="CenterContainer/VBoxContainer" index="0"]
margin_right = 1011.0
text = "That's all folks!"

[node name="HBoxContainer" parent="CenterContainer/VBoxContainer" index="1"]
margin_right = 1011.0

[node name="RestartButton" parent="CenterContainer/VBoxContainer/HBoxContainer" index="0"]
margin_left = 271.0
margin_right = 331.0

[node name="Label" parent="CenterContainer/VBoxContainer/HBoxContainer" index="1"]
margin_left = 335.0
margin_right = 740.0
text = "Play Again?"
