[gd_scene load_steps=8 format=2]

[ext_resource path="res://gfx/Items/spring_in.png" type="Texture" id=1]
[ext_resource path="res://scenes/items/jump_pad.gd" type="Script" id=2]
[ext_resource path="res://gfx/Items/spring_out.png" type="Texture" id=3]
[ext_resource path="res://gfx/Items/spring.png" type="Texture" id=4]

[sub_resource type="SpriteFrames" id=1]
animations = [ {
"frames": [ ExtResource( 4 ), ExtResource( 1 ) ],
"loop": true,
"name": "Idle",
"speed": 1.5
}, {
"frames": [ ExtResource( 4 ), ExtResource( 3 ) ],
"loop": false,
"name": "Sprung",
"speed": 2.5
} ]

[sub_resource type="RectangleShape2D" id=2]
extents = Vector2( 73.5, 38.5 )

[sub_resource type="Animation" id=3]
resource_name = "Sprung"
length = 2.0
tracks/0/type = "value"
tracks/0/path = NodePath("AnimatedSprite:animation")
tracks/0/interp = 1
tracks/0/loop_wrap = true
tracks/0/imported = false
tracks/0/enabled = true
tracks/0/keys = {
"times": PoolRealArray( 0, 1.5, 2 ),
"transitions": PoolRealArray( 1, 1, 1 ),
"update": 1,
"values": [ "Sprung", "Sprung", "Idle" ]
}

[node name="JumpPad" type="Area2D"]
collision_layer = 2147483656
collision_mask = 2147483649
script = ExtResource( 2 )

[node name="AnimatedSprite" type="AnimatedSprite" parent="."]
frames = SubResource( 1 )
animation = "Idle"
frame = 1
playing = true
offset = Vector2( 0, -30 )

[node name="CollisionShape2D" type="CollisionShape2D" parent="."]
position = Vector2( 0, -29.965 )
shape = SubResource( 2 )

[node name="AnimationPlayer" type="AnimationPlayer" parent="."]
anims/Sprung = SubResource( 3 )

[connection signal="body_entered" from="." to="." method="_on_JumpPad_player_entered"]
